-------------------- Auto-Git Log --------------------
		Wed Jul 14 2021 17:36:55 GMT+0100 (British Summer Time)
------------------------------------------------------

Modified files:
* app/Models/User.php
* app/Providers/RouteServiceProvider.php
* database/migrations/2014_10_12_000000_create_users_table.php
* resources/views/inc/portal/navbar.blade.php
* resources/views/inc/scripts.blade.php
* resources/views/inc/styles.blade.php
* resources/views/layouts/auth.blade.php
* resources/views/layouts/portal.blade.php
* routes/web.php


Created files:
* app/Http/Controllers/Auth/ConfirmPasswordController.php
* app/Http/Controllers/Auth/ForgotPasswordController.php
* app/Http/Controllers/Auth/LoginController.php
* app/Http/Controllers/Auth/RegisterController.php
* app/Http/Controllers/Auth/ResetPasswordController.php
* app/Http/Controllers/Auth/VerificationController.php
* app/Http/Controllers/HomeController.php
* app/Http/Controllers/LicenseController.php
* app/Http/Controllers/PortalController.php
* app/Http/Controllers/ProviderController.php
* app/Models/License.php
* app/Models/Provider.php
* database/migrations/2021_07_07_224406_create_providers_table.php
* database/migrations/2021_07_08_124025_create_licenses_table.php
* public/landing/css/animate.min.css
* public/landing/css/bootstrap.min.css
* public/landing/css/line-awesome.min.css
* public/landing/css/magnific-popup.css
* public/landing/css/odometer.css
* public/landing/css/owl.carousel.min.css
* public/landing/css/owl.theme.default.min.css
* public/landing/css/owl.video.play.html
* public/landing/css/responsive.css
* public/landing/css/style.css
* public/landing/fonts/la-brands-400.eot
* public/landing/fonts/la-brands-400.svg
* public/landing/fonts/la-brands-400.ttf
* public/landing/fonts/la-brands-400.woff
* public/landing/fonts/la-brands-400.woff2
* public/landing/fonts/la-brands-400d41d.eot
* public/landing/fonts/la-regular-400.eot
* public/landing/fonts/la-regular-400.svg
* public/landing/fonts/la-regular-400.ttf
* public/landing/fonts/la-regular-400.woff
* public/landing/fonts/la-regular-400.woff2
* public/landing/fonts/la-regular-400d41d.eot
* public/landing/fonts/la-solid-900.eot
* public/landing/fonts/la-solid-900.svg
* public/landing/fonts/la-solid-900.ttf
* public/landing/fonts/la-solid-900.woff
* public/landing/fonts/la-solid-900.woff2
* public/landing/fonts/la-solid-900d41d.eot
* public/landing/images/app-img/app-download-bg.jpg
* public/landing/images/app-img/app-store.png
* public/landing/images/app-img/google-play.png
* public/landing/images/app-img/video-bg.jpg
* public/landing/images/favicon.png
* public/landing/images/icon.png
* public/landing/images/logo-w.png
* public/landing/images/logo-white.png
* public/landing/images/logo.png
* public/landing/images/portfolio/fun-fact.jpg
* public/landing/images/portfolio/portfolio-bg.png
* public/landing/images/saas-img/subscribe-bg.jpg
* public/landing/images/saas-img/video-area-bg.jpg
* public/landing/images/seo-img/about-us1.png
* public/landing/images/seo-img/case-study1.jpg
* public/landing/images/seo-img/case-study2.jpg
* public/landing/images/seo-img/case-study3.jpg
* public/landing/images/seo-img/case-study4.jpg
* public/landing/images/seo-img/case-study5.jpg
* public/landing/images/seo-img/case-study6.jpg
* public/landing/images/seo-img/choose-us-1.jpg
* public/landing/images/seo-img/choose-us-2.png
* public/landing/images/seo-img/client1.jpg
* public/landing/images/seo-img/client2.jpg
* public/landing/images/seo-img/client3.jpg
* public/landing/images/seo-img/seo-banner-img1.jpg
* public/landing/images/seo-img/seo-banner-img2.png
* public/landing/images/seo-img/seo-banner-img3.png
* public/landing/images/seo-img/who-we-are-img.jpg
* public/landing/images/seo-img/who-we-are1.png
* public/landing/images/seo-img/who-we-are2.png
* public/landing/images/shape/shape13.png
* public/landing/images/shape/shape14.png
* public/landing/images/shape/shape15.png
* public/landing/images/shape/shape16.png
* public/landing/images/startup/free-contact-bg.jpg
* public/landing/images/startup/startup-banner-bg.jpg
* public/landing/js/bootstrap.min.js
* public/landing/js/contact-form-script.js
* public/landing/js/custom.js
* public/landing/js/form-validator.min.js
* public/landing/js/jquery.ajaxchimp.min.js
* public/landing/js/jquery.appear.js
* public/landing/js/jquery.magnific-popup.min.js
* public/landing/js/jquery.min.js
* public/landing/js/odometer.min.js
* public/landing/js/owl.carousel.min.js
* public/landing/js/popper.min.js
* public/landing/js/wow.min.js
* resources/views/auth/login.blade.php
* resources/views/auth/passwords/confirm.blade.php
* resources/views/auth/passwords/email.blade.php
* resources/views/auth/passwords/reset.blade.php
* resources/views/auth/register.blade.php
* resources/views/auth/verify.blade.php
* resources/views/home.blade.php
* resources/views/inc/footer.blade.php
* resources/views/inc/navbar.blade.php
* resources/views/inc/portal/scripts.blade.php
* resources/views/inc/portal/styles.blade.php
* resources/views/layouts/app.blade.php
* resources/views/layouts/pages.blade.php
* resources/views/pages/index.blade.php
* vproject.zip


Deleted files:


Renamed files:
