-------------------- Auto-Git Log --------------------
		Thu Jul 15 2021 19:40:01 GMT+0100 (British Summer Time)
------------------------------------------------------

Modified files:


Created files:
* .autogit/logs/log-15-6-2021-19-9-39.txt


Deleted files:


Renamed files:
