-------------------- Auto-Git Log --------------------
		Fri Aug 27 2021 21:16:24 GMT+0100 (West Africa Standard Time)
------------------------------------------------------

Modified files:
* app/Http/Controllers/StudentController.php


Created files:
* .autogit/logs/log-27-7-2021-20-44-50.txt
* resources/views/portal/student/scans.blade.php


Deleted files:


Renamed files:
