-------------------- Auto-Git Log --------------------
		Wed Jul 28 2021 03:41:28 GMT+0100 (British Summer Time)
------------------------------------------------------

Modified files:
* app/Http/Controllers/Auth/LoginController.php
* app/Http/Controllers/Auth/RegisterController.php
* app/Models/User.php
* resources/views/auth/login.blade.php
* resources/views/auth/register.blade.php
* resources/views/portal/admin/inc/styles.blade.php


Created files:
* .autogit/logs/log-28-6-2021-3-11-10.txt


Deleted files:


Renamed files:
