-------------------- Auto-Git Log --------------------
		Mon Aug 02 2021 19:39:19 GMT+0100 (British Summer Time)
------------------------------------------------------

Modified files:


Created files:
* .autogit/logs/log-2-7-2021-19-8-59.txt


Deleted files:


Renamed files:
