-------------------- Auto-Git Log --------------------
		Fri Sep 03 2021 22:00:13 GMT+0100 (West Africa Standard Time)
------------------------------------------------------

Modified files:


Created files:
* .autogit/logs/log-3-8-2021-21-11-50.txt


Deleted files:


Renamed files:
